%!PS-Adobe-2.0 EPSF-2.0
%%Title: plot.eps
%%Creator: gnuplot 4.6 patchlevel 6
%%CreationDate: Sat Nov  7 21:51:08 2015
%%DocumentFonts: (atend)
%%BoundingBox: 50 50 770 410
%%EndComments
%%BeginProlog
/gnudict 256 dict def
gnudict begin
%
% The following true/false flags may be edited by hand if desired.
% The unit line width and grayscale image gamma correction may also be changed.
%
/Color true def
/Blacktext false def
/Solid false def
/Dashlength 1 def
/Landscape false def
/Level1 false def
/Rounded false def
/ClipToBoundingBox false def
/SuppressPDFMark false def
/TransparentPatterns false def
/gnulinewidth 5.000 def
/userlinewidth gnulinewidth def
/Gamma 1.0 def
/BackgroundColor {-1.000 -1.000 -1.000} def
%
/vshift -46 def
/dl1 {
  10.0 Dashlength mul mul
  Rounded { currentlinewidth 0.75 mul sub dup 0 le { pop 0.01 } if } if
} def
/dl2 {
  10.0 Dashlength mul mul
  Rounded { currentlinewidth 0.75 mul add } if
} def
/hpt_ 31.5 def
/vpt_ 31.5 def
/hpt hpt_ def
/vpt vpt_ def
/doclip {
  ClipToBoundingBox {
    newpath 50 50 moveto 770 50 lineto 770 410 lineto 50 410 lineto closepath
    clip
  } if
} def
%
% Gnuplot Prolog Version 4.6 (September 2012)
%
%/SuppressPDFMark true def
%
/M {moveto} bind def
/L {lineto} bind def
/R {rmoveto} bind def
/V {rlineto} bind def
/N {newpath moveto} bind def
/Z {closepath} bind def
/C {setrgbcolor} bind def
/f {rlineto fill} bind def
/g {setgray} bind def
/Gshow {show} def   % May be redefined later in the file to support UTF-8
/vpt2 vpt 2 mul def
/hpt2 hpt 2 mul def
/Lshow {currentpoint stroke M 0 vshift R 
	Blacktext {gsave 0 setgray show grestore} {show} ifelse} def
/Rshow {currentpoint stroke M dup stringwidth pop neg vshift R
	Blacktext {gsave 0 setgray show grestore} {show} ifelse} def
/Cshow {currentpoint stroke M dup stringwidth pop -2 div vshift R 
	Blacktext {gsave 0 setgray show grestore} {show} ifelse} def
/UP {dup vpt_ mul /vpt exch def hpt_ mul /hpt exch def
  /hpt2 hpt 2 mul def /vpt2 vpt 2 mul def} def
/DL {Color {setrgbcolor Solid {pop []} if 0 setdash}
 {pop pop pop 0 setgray Solid {pop []} if 0 setdash} ifelse} def
/BL {stroke userlinewidth 2 mul setlinewidth
	Rounded {1 setlinejoin 1 setlinecap} if} def
/AL {stroke userlinewidth 2 div setlinewidth
	Rounded {1 setlinejoin 1 setlinecap} if} def
/UL {dup gnulinewidth mul /userlinewidth exch def
	dup 1 lt {pop 1} if 10 mul /udl exch def} def
/PL {stroke userlinewidth setlinewidth
	Rounded {1 setlinejoin 1 setlinecap} if} def
3.8 setmiterlimit
% Default Line colors
/LCw {1 1 1} def
/LCb {0 0 0} def
/LCa {0 0 0} def
/LC0 {1 0 0} def
/LC1 {0 1 0} def
/LC2 {0 0 1} def
/LC3 {1 0 1} def
/LC4 {0 1 1} def
/LC5 {1 1 0} def
/LC6 {0 0 0} def
/LC7 {1 0.3 0} def
/LC8 {0.5 0.5 0.5} def
% Default Line Types
/LTw {PL [] 1 setgray} def
/LTb {BL [] LCb DL} def
/LTa {AL [1 udl mul 2 udl mul] 0 setdash LCa setrgbcolor} def
/LT0 {PL [] LC0 DL} def
/LT1 {PL [4 dl1 2 dl2] LC1 DL} def
/LT2 {PL [2 dl1 3 dl2] LC2 DL} def
/LT3 {PL [1 dl1 1.5 dl2] LC3 DL} def
/LT4 {PL [6 dl1 2 dl2 1 dl1 2 dl2] LC4 DL} def
/LT5 {PL [3 dl1 3 dl2 1 dl1 3 dl2] LC5 DL} def
/LT6 {PL [2 dl1 2 dl2 2 dl1 6 dl2] LC6 DL} def
/LT7 {PL [1 dl1 2 dl2 6 dl1 2 dl2 1 dl1 2 dl2] LC7 DL} def
/LT8 {PL [2 dl1 2 dl2 2 dl1 2 dl2 2 dl1 2 dl2 2 dl1 4 dl2] LC8 DL} def
/Pnt {stroke [] 0 setdash gsave 1 setlinecap M 0 0 V stroke grestore} def
/Dia {stroke [] 0 setdash 2 copy vpt add M
  hpt neg vpt neg V hpt vpt neg V
  hpt vpt V hpt neg vpt V closepath stroke
  Pnt} def
/Pls {stroke [] 0 setdash vpt sub M 0 vpt2 V
  currentpoint stroke M
  hpt neg vpt neg R hpt2 0 V stroke
 } def
/Box {stroke [] 0 setdash 2 copy exch hpt sub exch vpt add M
  0 vpt2 neg V hpt2 0 V 0 vpt2 V
  hpt2 neg 0 V closepath stroke
  Pnt} def
/Crs {stroke [] 0 setdash exch hpt sub exch vpt add M
  hpt2 vpt2 neg V currentpoint stroke M
  hpt2 neg 0 R hpt2 vpt2 V stroke} def
/TriU {stroke [] 0 setdash 2 copy vpt 1.12 mul add M
  hpt neg vpt -1.62 mul V
  hpt 2 mul 0 V
  hpt neg vpt 1.62 mul V closepath stroke
  Pnt} def
/Star {2 copy Pls Crs} def
/BoxF {stroke [] 0 setdash exch hpt sub exch vpt add M
  0 vpt2 neg V hpt2 0 V 0 vpt2 V
  hpt2 neg 0 V closepath fill} def
/TriUF {stroke [] 0 setdash vpt 1.12 mul add M
  hpt neg vpt -1.62 mul V
  hpt 2 mul 0 V
  hpt neg vpt 1.62 mul V closepath fill} def
/TriD {stroke [] 0 setdash 2 copy vpt 1.12 mul sub M
  hpt neg vpt 1.62 mul V
  hpt 2 mul 0 V
  hpt neg vpt -1.62 mul V closepath stroke
  Pnt} def
/TriDF {stroke [] 0 setdash vpt 1.12 mul sub M
  hpt neg vpt 1.62 mul V
  hpt 2 mul 0 V
  hpt neg vpt -1.62 mul V closepath fill} def
/DiaF {stroke [] 0 setdash vpt add M
  hpt neg vpt neg V hpt vpt neg V
  hpt vpt V hpt neg vpt V closepath fill} def
/Pent {stroke [] 0 setdash 2 copy gsave
  translate 0 hpt M 4 {72 rotate 0 hpt L} repeat
  closepath stroke grestore Pnt} def
/PentF {stroke [] 0 setdash gsave
  translate 0 hpt M 4 {72 rotate 0 hpt L} repeat
  closepath fill grestore} def
/Circle {stroke [] 0 setdash 2 copy
  hpt 0 360 arc stroke Pnt} def
/CircleF {stroke [] 0 setdash hpt 0 360 arc fill} def
/C0 {BL [] 0 setdash 2 copy moveto vpt 90 450 arc} bind def
/C1 {BL [] 0 setdash 2 copy moveto
	2 copy vpt 0 90 arc closepath fill
	vpt 0 360 arc closepath} bind def
/C2 {BL [] 0 setdash 2 copy moveto
	2 copy vpt 90 180 arc closepath fill
	vpt 0 360 arc closepath} bind def
/C3 {BL [] 0 setdash 2 copy moveto
	2 copy vpt 0 180 arc closepath fill
	vpt 0 360 arc closepath} bind def
/C4 {BL [] 0 setdash 2 copy moveto
	2 copy vpt 180 270 arc closepath fill
	vpt 0 360 arc closepath} bind def
/C5 {BL [] 0 setdash 2 copy moveto
	2 copy vpt 0 90 arc
	2 copy moveto
	2 copy vpt 180 270 arc closepath fill
	vpt 0 360 arc} bind def
/C6 {BL [] 0 setdash 2 copy moveto
	2 copy vpt 90 270 arc closepath fill
	vpt 0 360 arc closepath} bind def
/C7 {BL [] 0 setdash 2 copy moveto
	2 copy vpt 0 270 arc closepath fill
	vpt 0 360 arc closepath} bind def
/C8 {BL [] 0 setdash 2 copy moveto
	2 copy vpt 270 360 arc closepath fill
	vpt 0 360 arc closepath} bind def
/C9 {BL [] 0 setdash 2 copy moveto
	2 copy vpt 270 450 arc closepath fill
	vpt 0 360 arc closepath} bind def
/C10 {BL [] 0 setdash 2 copy 2 copy moveto vpt 270 360 arc closepath fill
	2 copy moveto
	2 copy vpt 90 180 arc closepath fill
	vpt 0 360 arc closepath} bind def
/C11 {BL [] 0 setdash 2 copy moveto
	2 copy vpt 0 180 arc closepath fill
	2 copy moveto
	2 copy vpt 270 360 arc closepath fill
	vpt 0 360 arc closepath} bind def
/C12 {BL [] 0 setdash 2 copy moveto
	2 copy vpt 180 360 arc closepath fill
	vpt 0 360 arc closepath} bind def
/C13 {BL [] 0 setdash 2 copy moveto
	2 copy vpt 0 90 arc closepath fill
	2 copy moveto
	2 copy vpt 180 360 arc closepath fill
	vpt 0 360 arc closepath} bind def
/C14 {BL [] 0 setdash 2 copy moveto
	2 copy vpt 90 360 arc closepath fill
	vpt 0 360 arc} bind def
/C15 {BL [] 0 setdash 2 copy vpt 0 360 arc closepath fill
	vpt 0 360 arc closepath} bind def
/Rec {newpath 4 2 roll moveto 1 index 0 rlineto 0 exch rlineto
	neg 0 rlineto closepath} bind def
/Square {dup Rec} bind def
/Bsquare {vpt sub exch vpt sub exch vpt2 Square} bind def
/S0 {BL [] 0 setdash 2 copy moveto 0 vpt rlineto BL Bsquare} bind def
/S1 {BL [] 0 setdash 2 copy vpt Square fill Bsquare} bind def
/S2 {BL [] 0 setdash 2 copy exch vpt sub exch vpt Square fill Bsquare} bind def
/S3 {BL [] 0 setdash 2 copy exch vpt sub exch vpt2 vpt Rec fill Bsquare} bind def
/S4 {BL [] 0 setdash 2 copy exch vpt sub exch vpt sub vpt Square fill Bsquare} bind def
/S5 {BL [] 0 setdash 2 copy 2 copy vpt Square fill
	exch vpt sub exch vpt sub vpt Square fill Bsquare} bind def
/S6 {BL [] 0 setdash 2 copy exch vpt sub exch vpt sub vpt vpt2 Rec fill Bsquare} bind def
/S7 {BL [] 0 setdash 2 copy exch vpt sub exch vpt sub vpt vpt2 Rec fill
	2 copy vpt Square fill Bsquare} bind def
/S8 {BL [] 0 setdash 2 copy vpt sub vpt Square fill Bsquare} bind def
/S9 {BL [] 0 setdash 2 copy vpt sub vpt vpt2 Rec fill Bsquare} bind def
/S10 {BL [] 0 setdash 2 copy vpt sub vpt Square fill 2 copy exch vpt sub exch vpt Square fill
	Bsquare} bind def
/S11 {BL [] 0 setdash 2 copy vpt sub vpt Square fill 2 copy exch vpt sub exch vpt2 vpt Rec fill
	Bsquare} bind def
/S12 {BL [] 0 setdash 2 copy exch vpt sub exch vpt sub vpt2 vpt Rec fill Bsquare} bind def
/S13 {BL [] 0 setdash 2 copy exch vpt sub exch vpt sub vpt2 vpt Rec fill
	2 copy vpt Square fill Bsquare} bind def
/S14 {BL [] 0 setdash 2 copy exch vpt sub exch vpt sub vpt2 vpt Rec fill
	2 copy exch vpt sub exch vpt Square fill Bsquare} bind def
/S15 {BL [] 0 setdash 2 copy Bsquare fill Bsquare} bind def
/D0 {gsave translate 45 rotate 0 0 S0 stroke grestore} bind def
/D1 {gsave translate 45 rotate 0 0 S1 stroke grestore} bind def
/D2 {gsave translate 45 rotate 0 0 S2 stroke grestore} bind def
/D3 {gsave translate 45 rotate 0 0 S3 stroke grestore} bind def
/D4 {gsave translate 45 rotate 0 0 S4 stroke grestore} bind def
/D5 {gsave translate 45 rotate 0 0 S5 stroke grestore} bind def
/D6 {gsave translate 45 rotate 0 0 S6 stroke grestore} bind def
/D7 {gsave translate 45 rotate 0 0 S7 stroke grestore} bind def
/D8 {gsave translate 45 rotate 0 0 S8 stroke grestore} bind def
/D9 {gsave translate 45 rotate 0 0 S9 stroke grestore} bind def
/D10 {gsave translate 45 rotate 0 0 S10 stroke grestore} bind def
/D11 {gsave translate 45 rotate 0 0 S11 stroke grestore} bind def
/D12 {gsave translate 45 rotate 0 0 S12 stroke grestore} bind def
/D13 {gsave translate 45 rotate 0 0 S13 stroke grestore} bind def
/D14 {gsave translate 45 rotate 0 0 S14 stroke grestore} bind def
/D15 {gsave translate 45 rotate 0 0 S15 stroke grestore} bind def
/DiaE {stroke [] 0 setdash vpt add M
  hpt neg vpt neg V hpt vpt neg V
  hpt vpt V hpt neg vpt V closepath stroke} def
/BoxE {stroke [] 0 setdash exch hpt sub exch vpt add M
  0 vpt2 neg V hpt2 0 V 0 vpt2 V
  hpt2 neg 0 V closepath stroke} def
/TriUE {stroke [] 0 setdash vpt 1.12 mul add M
  hpt neg vpt -1.62 mul V
  hpt 2 mul 0 V
  hpt neg vpt 1.62 mul V closepath stroke} def
/TriDE {stroke [] 0 setdash vpt 1.12 mul sub M
  hpt neg vpt 1.62 mul V
  hpt 2 mul 0 V
  hpt neg vpt -1.62 mul V closepath stroke} def
/PentE {stroke [] 0 setdash gsave
  translate 0 hpt M 4 {72 rotate 0 hpt L} repeat
  closepath stroke grestore} def
/CircE {stroke [] 0 setdash 
  hpt 0 360 arc stroke} def
/Opaque {gsave closepath 1 setgray fill grestore 0 setgray closepath} def
/DiaW {stroke [] 0 setdash vpt add M
  hpt neg vpt neg V hpt vpt neg V
  hpt vpt V hpt neg vpt V Opaque stroke} def
/BoxW {stroke [] 0 setdash exch hpt sub exch vpt add M
  0 vpt2 neg V hpt2 0 V 0 vpt2 V
  hpt2 neg 0 V Opaque stroke} def
/TriUW {stroke [] 0 setdash vpt 1.12 mul add M
  hpt neg vpt -1.62 mul V
  hpt 2 mul 0 V
  hpt neg vpt 1.62 mul V Opaque stroke} def
/TriDW {stroke [] 0 setdash vpt 1.12 mul sub M
  hpt neg vpt 1.62 mul V
  hpt 2 mul 0 V
  hpt neg vpt -1.62 mul V Opaque stroke} def
/PentW {stroke [] 0 setdash gsave
  translate 0 hpt M 4 {72 rotate 0 hpt L} repeat
  Opaque stroke grestore} def
/CircW {stroke [] 0 setdash 
  hpt 0 360 arc Opaque stroke} def
/BoxFill {gsave Rec 1 setgray fill grestore} def
/Density {
  /Fillden exch def
  currentrgbcolor
  /ColB exch def /ColG exch def /ColR exch def
  /ColR ColR Fillden mul Fillden sub 1 add def
  /ColG ColG Fillden mul Fillden sub 1 add def
  /ColB ColB Fillden mul Fillden sub 1 add def
  ColR ColG ColB setrgbcolor} def
/BoxColFill {gsave Rec PolyFill} def
/PolyFill {gsave Density fill grestore grestore} def
/h {rlineto rlineto rlineto gsave closepath fill grestore} bind def
%
% PostScript Level 1 Pattern Fill routine for rectangles
% Usage: x y w h s a XX PatternFill
%	x,y = lower left corner of box to be filled
%	w,h = width and height of box
%	  a = angle in degrees between lines and x-axis
%	 XX = 0/1 for no/yes cross-hatch
%
/PatternFill {gsave /PFa [ 9 2 roll ] def
  PFa 0 get PFa 2 get 2 div add PFa 1 get PFa 3 get 2 div add translate
  PFa 2 get -2 div PFa 3 get -2 div PFa 2 get PFa 3 get Rec
  TransparentPatterns {} {gsave 1 setgray fill grestore} ifelse
  clip
  currentlinewidth 0.5 mul setlinewidth
  /PFs PFa 2 get dup mul PFa 3 get dup mul add sqrt def
  0 0 M PFa 5 get rotate PFs -2 div dup translate
  0 1 PFs PFa 4 get div 1 add floor cvi
	{PFa 4 get mul 0 M 0 PFs V} for
  0 PFa 6 get ne {
	0 1 PFs PFa 4 get div 1 add floor cvi
	{PFa 4 get mul 0 2 1 roll M PFs 0 V} for
 } if
  stroke grestore} def
%
/languagelevel where
 {pop languagelevel} {1} ifelse
 2 lt
	{/InterpretLevel1 true def}
	{/InterpretLevel1 Level1 def}
 ifelse
%
% PostScript level 2 pattern fill definitions
%
/Level2PatternFill {
/Tile8x8 {/PaintType 2 /PatternType 1 /TilingType 1 /BBox [0 0 8 8] /XStep 8 /YStep 8}
	bind def
/KeepColor {currentrgbcolor [/Pattern /DeviceRGB] setcolorspace} bind def
<< Tile8x8
 /PaintProc {0.5 setlinewidth pop 0 0 M 8 8 L 0 8 M 8 0 L stroke} 
>> matrix makepattern
/Pat1 exch def
<< Tile8x8
 /PaintProc {0.5 setlinewidth pop 0 0 M 8 8 L 0 8 M 8 0 L stroke
	0 4 M 4 8 L 8 4 L 4 0 L 0 4 L stroke}
>> matrix makepattern
/Pat2 exch def
<< Tile8x8
 /PaintProc {0.5 setlinewidth pop 0 0 M 0 8 L
	8 8 L 8 0 L 0 0 L fill}
>> matrix makepattern
/Pat3 exch def
<< Tile8x8
 /PaintProc {0.5 setlinewidth pop -4 8 M 8 -4 L
	0 12 M 12 0 L stroke}
>> matrix makepattern
/Pat4 exch def
<< Tile8x8
 /PaintProc {0.5 setlinewidth pop -4 0 M 8 12 L
	0 -4 M 12 8 L stroke}
>> matrix makepattern
/Pat5 exch def
<< Tile8x8
 /PaintProc {0.5 setlinewidth pop -2 8 M 4 -4 L
	0 12 M 8 -4 L 4 12 M 10 0 L stroke}
>> matrix makepattern
/Pat6 exch def
<< Tile8x8
 /PaintProc {0.5 setlinewidth pop -2 0 M 4 12 L
	0 -4 M 8 12 L 4 -4 M 10 8 L stroke}
>> matrix makepattern
/Pat7 exch def
<< Tile8x8
 /PaintProc {0.5 setlinewidth pop 8 -2 M -4 4 L
	12 0 M -4 8 L 12 4 M 0 10 L stroke}
>> matrix makepattern
/Pat8 exch def
<< Tile8x8
 /PaintProc {0.5 setlinewidth pop 0 -2 M 12 4 L
	-4 0 M 12 8 L -4 4 M 8 10 L stroke}
>> matrix makepattern
/Pat9 exch def
/Pattern1 {PatternBgnd KeepColor Pat1 setpattern} bind def
/Pattern2 {PatternBgnd KeepColor Pat2 setpattern} bind def
/Pattern3 {PatternBgnd KeepColor Pat3 setpattern} bind def
/Pattern4 {PatternBgnd KeepColor Landscape {Pat5} {Pat4} ifelse setpattern} bind def
/Pattern5 {PatternBgnd KeepColor Landscape {Pat4} {Pat5} ifelse setpattern} bind def
/Pattern6 {PatternBgnd KeepColor Landscape {Pat9} {Pat6} ifelse setpattern} bind def
/Pattern7 {PatternBgnd KeepColor Landscape {Pat8} {Pat7} ifelse setpattern} bind def
} def
%
%
%End of PostScript Level 2 code
%
/PatternBgnd {
  TransparentPatterns {} {gsave 1 setgray fill grestore} ifelse
} def
%
% Substitute for Level 2 pattern fill codes with
% grayscale if Level 2 support is not selected.
%
/Level1PatternFill {
/Pattern1 {0.250 Density} bind def
/Pattern2 {0.500 Density} bind def
/Pattern3 {0.750 Density} bind def
/Pattern4 {0.125 Density} bind def
/Pattern5 {0.375 Density} bind def
/Pattern6 {0.625 Density} bind def
/Pattern7 {0.875 Density} bind def
} def
%
% Now test for support of Level 2 code
%
Level1 {Level1PatternFill} {Level2PatternFill} ifelse
%
/Symbol-Oblique /Symbol findfont [1 0 .167 1 0 0] makefont
dup length dict begin {1 index /FID eq {pop pop} {def} ifelse} forall
currentdict end definefont pop
/MFshow {
   { dup 5 get 3 ge
     { 5 get 3 eq {gsave} {grestore} ifelse }
     {dup dup 0 get findfont exch 1 get scalefont setfont
     [ currentpoint ] exch dup 2 get 0 exch R dup 5 get 2 ne {dup dup 6
     get exch 4 get {Gshow} {stringwidth pop 0 R} ifelse }if dup 5 get 0 eq
     {dup 3 get {2 get neg 0 exch R pop} {pop aload pop M} ifelse} {dup 5
     get 1 eq {dup 2 get exch dup 3 get exch 6 get stringwidth pop -2 div
     dup 0 R} {dup 6 get stringwidth pop -2 div 0 R 6 get
     show 2 index {aload pop M neg 3 -1 roll neg R pop pop} {pop pop pop
     pop aload pop M} ifelse }ifelse }ifelse }
     ifelse }
   forall} def
/Gswidth {dup type /stringtype eq {stringwidth} {pop (n) stringwidth} ifelse} def
/MFwidth {0 exch { dup 5 get 3 ge { 5 get 3 eq { 0 } { pop } ifelse }
 {dup 3 get{dup dup 0 get findfont exch 1 get scalefont setfont
     6 get Gswidth pop add} {pop} ifelse} ifelse} forall} def
/MLshow { currentpoint stroke M
  0 exch R
  Blacktext {gsave 0 setgray MFshow grestore} {MFshow} ifelse } bind def
/MRshow { currentpoint stroke M
  exch dup MFwidth neg 3 -1 roll R
  Blacktext {gsave 0 setgray MFshow grestore} {MFshow} ifelse } bind def
/MCshow { currentpoint stroke M
  exch dup MFwidth -2 div 3 -1 roll R
  Blacktext {gsave 0 setgray MFshow grestore} {MFshow} ifelse } bind def
/XYsave    { [( ) 1 2 true false 3 ()] } bind def
/XYrestore { [( ) 1 2 true false 4 ()] } bind def
Level1 SuppressPDFMark or 
{} {
/SDict 10 dict def
systemdict /pdfmark known not {
  userdict /pdfmark systemdict /cleartomark get put
} if
SDict begin [
  /Title (plot.eps)
  /Subject (gnuplot plot)
  /Creator (gnuplot 4.6 patchlevel 6)
  /Author (sam)
%  /Producer (gnuplot)
%  /Keywords ()
  /CreationDate (Sat Nov  7 21:51:08 2015)
  /DOCINFO pdfmark
end
} ifelse
end
%%EndProlog
%%Page: 1 1
gnudict begin
gsave
doclip
50 50 translate
0.050 0.050 scale
0 setgray
newpath
(Helvetica) findfont 140 scalefont setfont
BackgroundColor 0 lt 3 1 roll 0 lt exch 0 lt or or not {BackgroundColor C 1.000 0 0 14400.00 7200.00 BoxColFill} if
/Helvetica findfont 140 scalefont setfont
/vshift -46 def
1.000 UL
LTb
LCb setrgbcolor
686 448 M
63 0 V
6198 0 R
-63 0 V
stroke
602 448 M
[ [(Helvetica) 140.0 0.0 true true 0 ( 0)]
] -46.7 MRshow
1.000 UL
LTb
LCb setrgbcolor
686 1352 M
63 0 V
6198 0 R
-63 0 V
stroke
602 1352 M
[ [(Helvetica) 140.0 0.0 true true 0 ( 0.5)]
] -46.7 MRshow
1.000 UL
LTb
LCb setrgbcolor
686 2257 M
63 0 V
6198 0 R
-63 0 V
stroke
602 2257 M
[ [(Helvetica) 140.0 0.0 true true 0 ( 1)]
] -46.7 MRshow
1.000 UL
LTb
LCb setrgbcolor
686 3161 M
63 0 V
6198 0 R
-63 0 V
stroke
602 3161 M
[ [(Helvetica) 140.0 0.0 true true 0 ( 1.5)]
] -46.7 MRshow
1.000 UL
LTb
LCb setrgbcolor
686 4066 M
63 0 V
6198 0 R
-63 0 V
stroke
602 4066 M
[ [(Helvetica) 140.0 0.0 true true 0 ( 2)]
] -46.7 MRshow
1.000 UL
LTb
LCb setrgbcolor
686 4970 M
63 0 V
6198 0 R
-63 0 V
stroke
602 4970 M
[ [(Helvetica) 140.0 0.0 true true 0 ( 2.5)]
] -46.7 MRshow
1.000 UL
LTb
LCb setrgbcolor
686 5875 M
63 0 V
6198 0 R
-63 0 V
stroke
602 5875 M
[ [(Helvetica) 140.0 0.0 true true 0 ( 3)]
] -46.7 MRshow
1.000 UL
LTb
LCb setrgbcolor
686 6779 M
63 0 V
6198 0 R
-63 0 V
stroke
602 6779 M
[ [(Helvetica) 140.0 0.0 true true 0 ( 3.5)]
] -46.7 MRshow
1.000 UL
LTb
LCb setrgbcolor
686 448 M
0 63 V
0 6268 R
0 -63 V
stroke
686 308 M
[ [(Helvetica) 140.0 0.0 true true 0 ( 1)]
] -46.7 MCshow
1.000 UL
LTb
LCb setrgbcolor
1000 448 M
0 31 V
0 6300 R
0 -31 V
1415 448 M
0 31 V
0 6300 R
0 -31 V
1628 448 M
0 31 V
0 6300 R
0 -31 V
1730 448 M
0 63 V
0 6268 R
0 -63 V
stroke
1730 308 M
[ [(Helvetica) 140.0 0.0 true true 0 ( 10)]
] -46.7 MCshow
1.000 UL
LTb
LCb setrgbcolor
2044 448 M
0 31 V
0 6300 R
0 -31 V
2459 448 M
0 31 V
0 6300 R
0 -31 V
2672 448 M
0 31 V
0 6300 R
0 -31 V
2773 448 M
0 63 V
0 6268 R
0 -63 V
stroke
2773 308 M
[ [(Helvetica) 140.0 0.0 true true 0 ( 100)]
] -46.7 MCshow
1.000 UL
LTb
LCb setrgbcolor
3087 448 M
0 31 V
0 6300 R
0 -31 V
3502 448 M
0 31 V
0 6300 R
0 -31 V
3715 448 M
0 31 V
0 6300 R
0 -31 V
3817 448 M
0 63 V
0 6268 R
0 -63 V
stroke
3817 308 M
[ [(Helvetica) 140.0 0.0 true true 0 ( 1000)]
] -46.7 MCshow
1.000 UL
LTb
LCb setrgbcolor
4131 448 M
0 31 V
0 6300 R
0 -31 V
4546 448 M
0 31 V
0 6300 R
0 -31 V
4759 448 M
0 31 V
0 6300 R
0 -31 V
4860 448 M
0 63 V
0 6268 R
0 -63 V
stroke
4860 308 M
[ [(Helvetica) 140.0 0.0 true true 0 ( 10000)]
] -46.7 MCshow
1.000 UL
LTb
LCb setrgbcolor
5174 448 M
0 31 V
0 6300 R
0 -31 V
5589 448 M
0 31 V
0 6300 R
0 -31 V
5802 448 M
0 31 V
0 6300 R
0 -31 V
5904 448 M
0 63 V
0 6268 R
0 -63 V
stroke
5904 308 M
[ [(Helvetica) 140.0 0.0 true true 0 ( 100000)]
] -46.7 MCshow
1.000 UL
LTb
LCb setrgbcolor
6218 448 M
0 31 V
0 6300 R
0 -31 V
6633 448 M
0 31 V
0 6300 R
0 -31 V
6846 448 M
0 31 V
0 6300 R
0 -31 V
6947 448 M
0 63 V
0 6268 R
0 -63 V
stroke
6947 308 M
[ [(Helvetica) 140.0 0.0 true true 0 ( 1e+06)]
] -46.7 MCshow
1.000 UL
LTb
LCb setrgbcolor
1.000 UL
LTb
LCb setrgbcolor
686 6779 N
686 448 L
6261 0 V
0 6331 V
-6261 0 V
Z stroke
LCb setrgbcolor
112 3613 M
currentpoint gsave translate -270 rotate 0 0 moveto
[ [(Helvetica) 140.0 0.0 true true 0 (Pi estimation)]
] -46.7 MCshow
grestore
LTb
LCb setrgbcolor
3816 98 M
[ [(Helvetica) 140.0 0.0 true true 0 (Iterations)]
] -46.7 MCshow
LTb
3816 6989 M
[ [(Helvetica) 140.0 0.0 true true 0 (pi estimate)]
] -46.7 MCshow
1.000 UP
1.000 UL
LTb
LCb setrgbcolor
% Begin plot #1
1.000 UP
1.000 UL
LT0
LC0 setrgbcolor
/Helvetica findfont 140 scalefont setfont
LCb setrgbcolor
6296 6646 M
("out_normal.dat") Rshow
LT0
6380 6646 M
399 0 V
686 448 M
3817 5793 L
314 8 V
184 137 V
130 36 V
101 32 V
83 12 V
69 2 V
61 28 V
53 15 V
48 12 V
43 -3 V
40 16 V
36 -9 V
34 -16 V
31 -1 V
29 12 V
28 1 V
25 7 V
25 9 V
23 2 V
22 -1 V
21 -2 V
20 -3 V
20 8 V
18 -5 V
18 -1 V
17 12 V
17 -8 V
16 3 V
15 -1 V
15 0 V
14 10 V
14 5 V
14 0 V
13 0 V
13 -1 V
12 4 V
12 2 V
12 0 V
11 6 V
11 -4 V
11 3 V
11 3 V
10 -1 V
11 -1 V
10 -5 V
9 -9 V
10 0 V
9 2 V
9 3 V
9 5 V
9 3 V
9 1 V
8 4 V
9 2 V
8 0 V
8 2 V
8 0 V
7 1 V
8 -2 V
7 -1 V
8 -1 V
7 -1 V
7 -3 V
7 2 V
7 0 V
7 3 V
7 4 V
6 1 V
7 -2 V
6 5 V
7 2 V
6 -1 V
6 -3 V
6 3 V
6 -3 V
6 3 V
6 3 V
6 0 V
5 -3 V
6 2 V
6 1 V
5 -2 V
5 2 V
6 0 V
5 3 V
5 -2 V
6 -1 V
5 0 V
5 0 V
5 -2 V
5 -1 V
5 -3 V
4 -3 V
5 0 V
5 2 V
5 -2 V
4 -2 V
5 0 V
5 1 V
4 -1 V
4 -3 V
5 -3 V
4 3 V
5 1 V
stroke 5926 6126 M
4 0 V
4 0 V
4 3 V
5 1 V
4 -1 V
4 2 V
4 -4 V
4 0 V
4 2 V
4 0 V
4 -4 V
4 -1 V
4 -2 V
3 1 V
4 -3 V
4 2 V
4 1 V
3 2 V
4 -1 V
4 -1 V
3 3 V
4 1 V
3 2 V
4 -1 V
3 0 V
4 0 V
3 0 V
4 3 V
3 1 V
4 -3 V
3 0 V
3 -1 V
3 -2 V
4 0 V
3 0 V
3 0 V
3 0 V
4 1 V
3 -3 V
3 0 V
3 3 V
3 -1 V
3 1 V
3 0 V
3 3 V
3 -1 V
3 -1 V
3 -3 V
3 1 V
3 1 V
3 0 V
3 0 V
3 0 V
3 0 V
3 1 V
2 0 V
3 0 V
3 0 V
3 0 V
2 2 V
3 -1 V
3 -1 V
3 -1 V
2 1 V
3 -1 V
3 0 V
2 0 V
3 1 V
3 0 V
2 -1 V
3 1 V
2 -1 V
3 1 V
2 1 V
3 2 V
2 0 V
3 -1 V
2 -1 V
3 0 V
2 -1 V
3 0 V
2 1 V
3 0 V
2 0 V
2 2 V
3 0 V
2 0 V
2 0 V
3 0 V
2 1 V
2 0 V
3 0 V
2 0 V
2 -1 V
3 0 V
2 1 V
2 0 V
2 0 V
3 -1 V
2 0 V
2 0 V
2 1 V
2 -3 V
3 0 V
stroke 6238 6129 M
2 0 V
2 -1 V
2 -1 V
2 2 V
2 0 V
2 0 V
3 0 V
2 1 V
2 -1 V
2 -2 V
2 1 V
2 -1 V
2 1 V
2 0 V
2 1 V
2 1 V
2 0 V
2 -1 V
2 -1 V
2 0 V
2 0 V
2 1 V
2 0 V
2 -1 V
2 2 V
2 0 V
2 1 V
2 0 V
1 1 V
2 0 V
2 -1 V
2 -1 V
2 1 V
2 -1 V
2 0 V
2 0 V
1 0 V
2 -1 V
2 0 V
2 0 V
2 -1 V
2 0 V
1 0 V
2 0 V
2 0 V
2 0 V
2 1 V
1 1 V
2 -1 V
2 1 V
2 0 V
1 0 V
2 -1 V
2 0 V
1 0 V
2 1 V
2 1 V
2 0 V
1 -1 V
2 1 V
2 0 V
1 0 V
2 0 V
2 1 V
1 0 V
2 1 V
2 -1 V
1 -1 V
2 0 V
1 1 V
2 0 V
2 -1 V
1 0 V
2 2 V
2 -1 V
1 -1 V
2 -1 V
1 0 V
2 0 V
1 -1 V
2 0 V
2 0 V
1 -1 V
2 1 V
1 0 V
2 1 V
1 0 V
2 0 V
1 -1 V
2 0 V
1 0 V
2 0 V
1 1 V
2 -1 V
1 1 V
2 0 V
1 -1 V
2 -1 V
1 1 V
2 0 V
1 0 V
2 0 V
1 -1 V
2 -1 V
stroke 6421 6127 M
1 0 V
1 0 V
2 0 V
1 -1 V
2 0 V
1 0 V
2 0 V
1 0 V
1 1 V
2 0 V
1 1 V
2 1 V
1 0 V
1 0 V
2 0 V
1 1 V
2 0 V
1 -1 V
1 1 V
2 0 V
1 0 V
1 -1 V
2 0 V
1 1 V
1 0 V
2 0 V
1 0 V
1 0 V
2 0 V
1 0 V
1 0 V
2 0 V
1 0 V
1 0 V
2 0 V
1 1 V
1 0 V
2 0 V
1 0 V
1 -1 V
1 0 V
2 -1 V
1 0 V
1 1 V
1 0 V
2 1 V
1 0 V
1 1 V
2 0 V
1 0 V
1 -1 V
1 0 V
1 0 V
2 0 V
1 1 V
1 -1 V
1 0 V
2 0 V
1 1 V
1 0 V
1 0 V
2 0 V
1 0 V
1 0 V
1 0 V
1 1 V
2 0 V
1 0 V
1 0 V
1 0 V
1 1 V
1 -1 V
2 1 V
1 0 V
1 0 V
1 0 V
1 0 V
1 0 V
2 1 V
1 0 V
1 0 V
1 0 V
1 0 V
1 0 V
1 0 V
2 0 V
1 1 V
1 0 V
1 0 V
1 0 V
1 1 V
1 0 V
1 -1 V
2 0 V
1 1 V
1 0 V
1 0 V
1 0 V
1 -1 V
1 -1 V
1 1 V
1 0 V
2 0 V
1 0 V
stroke 6551 6136 M
1 0 V
1 0 V
1 0 V
1 0 V
1 0 V
1 1 V
1 1 V
1 0 V
1 0 V
1 0 V
1 -1 V
1 0 V
2 -1 V
1 0 V
1 0 V
1 0 V
1 -1 V
1 0 V
1 0 V
1 0 V
1 -1 V
1 1 V
1 0 V
1 1 V
1 0 V
1 -1 V
1 1 V
1 -1 V
1 1 V
1 0 V
1 0 V
1 0 V
1 1 V
1 0 V
1 -1 V
1 0 V
1 0 V
1 0 V
1 1 V
1 0 V
1 0 V
1 -1 V
1 0 V
1 0 V
1 0 V
1 0 V
1 0 V
1 -1 V
1 0 V
1 0 V
1 0 V
1 0 V
1 0 V
1 0 V
1 0 V
1 0 V
1 0 V
1 0 V
1 0 V
1 -1 V
1 1 V
1 0 V
1 -1 V
1 0 V
1 0 V
1 0 V
1 0 V
1 0 V
1 0 V
1 0 V
1 -1 V
1 0 V
1 -1 V
1 0 V
1 0 V
1 1 V
1 0 V
1 0 V
1 0 V
1 0 V
686 448 Pls
3817 5793 Pls
4131 5801 Pls
4315 5938 Pls
4445 5974 Pls
4546 6006 Pls
4629 6018 Pls
4698 6020 Pls
4759 6048 Pls
4812 6063 Pls
4860 6075 Pls
4903 6072 Pls
4943 6088 Pls
4979 6079 Pls
5013 6063 Pls
5044 6062 Pls
5073 6074 Pls
5101 6075 Pls
5126 6082 Pls
5151 6091 Pls
5174 6093 Pls
5196 6092 Pls
5217 6090 Pls
5237 6087 Pls
5257 6095 Pls
5275 6090 Pls
5293 6089 Pls
5310 6101 Pls
5327 6093 Pls
5343 6096 Pls
5358 6095 Pls
5373 6095 Pls
5387 6105 Pls
5401 6110 Pls
5415 6110 Pls
5428 6110 Pls
5441 6109 Pls
5453 6113 Pls
5465 6115 Pls
5477 6115 Pls
5488 6121 Pls
5499 6117 Pls
5510 6120 Pls
5521 6123 Pls
5531 6122 Pls
5542 6121 Pls
5552 6116 Pls
5561 6107 Pls
5571 6107 Pls
5580 6109 Pls
5589 6112 Pls
5598 6117 Pls
5607 6120 Pls
5616 6121 Pls
5624 6125 Pls
5633 6127 Pls
5641 6127 Pls
5649 6129 Pls
5657 6129 Pls
5664 6130 Pls
5672 6128 Pls
5679 6127 Pls
5687 6126 Pls
5694 6125 Pls
5701 6122 Pls
5708 6124 Pls
5715 6124 Pls
5722 6127 Pls
5729 6131 Pls
5735 6132 Pls
5742 6130 Pls
5748 6135 Pls
5755 6137 Pls
5761 6136 Pls
5767 6133 Pls
5773 6136 Pls
5779 6133 Pls
5785 6136 Pls
5791 6139 Pls
5797 6139 Pls
5802 6136 Pls
5808 6138 Pls
5814 6139 Pls
5819 6137 Pls
5824 6139 Pls
5830 6139 Pls
5835 6142 Pls
5840 6140 Pls
5846 6139 Pls
5851 6139 Pls
5856 6139 Pls
5861 6137 Pls
5866 6136 Pls
5871 6133 Pls
5875 6130 Pls
5880 6130 Pls
5885 6132 Pls
5890 6130 Pls
5894 6128 Pls
5899 6128 Pls
5904 6129 Pls
5908 6128 Pls
5912 6125 Pls
5917 6122 Pls
5921 6125 Pls
5926 6126 Pls
5930 6126 Pls
5934 6126 Pls
5938 6129 Pls
5943 6130 Pls
5947 6129 Pls
5951 6131 Pls
5955 6127 Pls
5959 6127 Pls
5963 6129 Pls
5967 6129 Pls
5971 6125 Pls
5975 6124 Pls
5979 6122 Pls
5982 6123 Pls
5986 6120 Pls
5990 6122 Pls
5994 6123 Pls
5997 6125 Pls
6001 6124 Pls
6005 6123 Pls
6008 6126 Pls
6012 6127 Pls
6015 6129 Pls
6019 6128 Pls
6022 6128 Pls
6026 6128 Pls
6029 6128 Pls
6033 6131 Pls
6036 6132 Pls
6040 6129 Pls
6043 6129 Pls
6046 6128 Pls
6049 6126 Pls
6053 6126 Pls
6056 6126 Pls
6059 6126 Pls
6062 6126 Pls
6066 6127 Pls
6069 6124 Pls
6072 6124 Pls
6075 6127 Pls
6078 6126 Pls
6081 6127 Pls
6084 6127 Pls
6087 6130 Pls
6090 6129 Pls
6093 6128 Pls
6096 6125 Pls
6099 6126 Pls
6102 6127 Pls
6105 6127 Pls
6108 6127 Pls
6111 6127 Pls
6114 6127 Pls
6117 6128 Pls
6119 6128 Pls
6122 6128 Pls
6125 6128 Pls
6128 6128 Pls
6130 6130 Pls
6133 6129 Pls
6136 6128 Pls
6139 6127 Pls
6141 6128 Pls
6144 6127 Pls
6147 6127 Pls
6149 6127 Pls
6152 6128 Pls
6155 6128 Pls
6157 6127 Pls
6160 6128 Pls
6162 6127 Pls
6165 6128 Pls
6167 6129 Pls
6170 6131 Pls
6172 6131 Pls
6175 6130 Pls
6177 6129 Pls
6180 6129 Pls
6182 6128 Pls
6185 6128 Pls
6187 6129 Pls
6190 6129 Pls
6192 6129 Pls
6194 6131 Pls
6197 6131 Pls
6199 6131 Pls
6201 6131 Pls
6204 6131 Pls
6206 6132 Pls
6208 6132 Pls
6211 6132 Pls
6213 6132 Pls
6215 6131 Pls
6218 6131 Pls
6220 6132 Pls
6222 6132 Pls
6224 6132 Pls
6227 6131 Pls
6229 6131 Pls
6231 6131 Pls
6233 6132 Pls
6235 6129 Pls
6238 6129 Pls
6240 6129 Pls
6242 6128 Pls
6244 6127 Pls
6246 6129 Pls
6248 6129 Pls
6250 6129 Pls
6253 6129 Pls
6255 6130 Pls
6257 6129 Pls
6259 6127 Pls
6261 6128 Pls
6263 6127 Pls
6265 6128 Pls
6267 6128 Pls
6269 6129 Pls
6271 6130 Pls
6273 6130 Pls
6275 6129 Pls
6277 6128 Pls
6279 6128 Pls
6281 6128 Pls
6283 6129 Pls
6285 6129 Pls
6287 6128 Pls
6289 6130 Pls
6291 6130 Pls
6293 6131 Pls
6295 6131 Pls
6296 6132 Pls
6298 6132 Pls
6300 6131 Pls
6302 6130 Pls
6304 6131 Pls
6306 6130 Pls
6308 6130 Pls
6310 6130 Pls
6311 6130 Pls
6313 6129 Pls
6315 6129 Pls
6317 6129 Pls
6319 6128 Pls
6321 6128 Pls
6322 6128 Pls
6324 6128 Pls
6326 6128 Pls
6328 6128 Pls
6330 6129 Pls
6331 6130 Pls
6333 6129 Pls
6335 6130 Pls
6337 6130 Pls
6338 6130 Pls
6340 6129 Pls
6342 6129 Pls
6343 6129 Pls
6345 6130 Pls
6347 6131 Pls
6349 6131 Pls
6350 6130 Pls
6352 6131 Pls
6354 6131 Pls
6355 6131 Pls
6357 6131 Pls
6359 6132 Pls
6360 6132 Pls
6362 6133 Pls
6364 6132 Pls
6365 6131 Pls
6367 6131 Pls
6368 6132 Pls
6370 6132 Pls
6372 6131 Pls
6373 6131 Pls
6375 6133 Pls
6377 6132 Pls
6378 6131 Pls
6380 6130 Pls
6381 6130 Pls
6383 6130 Pls
6384 6129 Pls
6386 6129 Pls
6388 6129 Pls
6389 6128 Pls
6391 6129 Pls
6392 6129 Pls
6394 6130 Pls
6395 6130 Pls
6397 6130 Pls
6398 6129 Pls
6400 6129 Pls
6401 6129 Pls
6403 6129 Pls
6404 6130 Pls
6406 6129 Pls
6407 6130 Pls
6409 6130 Pls
6410 6129 Pls
6412 6128 Pls
6413 6129 Pls
6415 6129 Pls
6416 6129 Pls
6418 6129 Pls
6419 6128 Pls
6421 6127 Pls
6422 6127 Pls
6423 6127 Pls
6425 6127 Pls
6426 6126 Pls
6428 6126 Pls
6429 6126 Pls
6431 6126 Pls
6432 6126 Pls
6433 6127 Pls
6435 6127 Pls
6436 6128 Pls
6438 6129 Pls
6439 6129 Pls
6440 6129 Pls
6442 6129 Pls
6443 6130 Pls
6445 6130 Pls
6446 6129 Pls
6447 6130 Pls
6449 6130 Pls
6450 6130 Pls
6451 6129 Pls
6453 6129 Pls
6454 6130 Pls
6455 6130 Pls
6457 6130 Pls
6458 6130 Pls
6459 6130 Pls
6461 6130 Pls
6462 6130 Pls
6463 6130 Pls
6465 6130 Pls
6466 6130 Pls
6467 6130 Pls
6469 6130 Pls
6470 6131 Pls
6471 6131 Pls
6473 6131 Pls
6474 6131 Pls
6475 6130 Pls
6476 6130 Pls
6478 6129 Pls
6479 6129 Pls
6480 6130 Pls
6481 6130 Pls
6483 6131 Pls
6484 6131 Pls
6485 6132 Pls
6487 6132 Pls
6488 6132 Pls
6489 6131 Pls
6490 6131 Pls
6491 6131 Pls
6493 6131 Pls
6494 6132 Pls
6495 6131 Pls
6496 6131 Pls
6498 6131 Pls
6499 6132 Pls
6500 6132 Pls
6501 6132 Pls
6503 6132 Pls
6504 6132 Pls
6505 6132 Pls
6506 6132 Pls
6507 6133 Pls
6509 6133 Pls
6510 6133 Pls
6511 6133 Pls
6512 6133 Pls
6513 6134 Pls
6514 6133 Pls
6516 6134 Pls
6517 6134 Pls
6518 6134 Pls
6519 6134 Pls
6520 6134 Pls
6521 6134 Pls
6523 6135 Pls
6524 6135 Pls
6525 6135 Pls
6526 6135 Pls
6527 6135 Pls
6528 6135 Pls
6529 6135 Pls
6531 6135 Pls
6532 6136 Pls
6533 6136 Pls
6534 6136 Pls
6535 6136 Pls
6536 6137 Pls
6537 6137 Pls
6538 6136 Pls
6540 6136 Pls
6541 6137 Pls
6542 6137 Pls
6543 6137 Pls
6544 6137 Pls
6545 6136 Pls
6546 6135 Pls
6547 6136 Pls
6548 6136 Pls
6550 6136 Pls
6551 6136 Pls
6552 6136 Pls
6553 6136 Pls
6554 6136 Pls
6555 6136 Pls
6556 6136 Pls
6557 6137 Pls
6558 6138 Pls
6559 6138 Pls
6560 6138 Pls
6561 6138 Pls
6562 6137 Pls
6563 6137 Pls
6565 6136 Pls
6566 6136 Pls
6567 6136 Pls
6568 6136 Pls
6569 6135 Pls
6570 6135 Pls
6571 6135 Pls
6572 6135 Pls
6573 6134 Pls
6574 6135 Pls
6575 6135 Pls
6576 6136 Pls
6577 6136 Pls
6578 6135 Pls
6579 6136 Pls
6580 6135 Pls
6581 6136 Pls
6582 6136 Pls
6583 6136 Pls
6584 6136 Pls
6585 6137 Pls
6586 6137 Pls
6587 6136 Pls
6588 6136 Pls
6589 6136 Pls
6590 6136 Pls
6591 6137 Pls
6592 6137 Pls
6593 6137 Pls
6594 6136 Pls
6595 6136 Pls
6596 6136 Pls
6597 6136 Pls
6598 6136 Pls
6599 6136 Pls
6600 6135 Pls
6601 6135 Pls
6602 6135 Pls
6603 6135 Pls
6604 6135 Pls
6605 6135 Pls
6606 6135 Pls
6607 6135 Pls
6608 6135 Pls
6609 6135 Pls
6610 6135 Pls
6611 6135 Pls
6612 6134 Pls
6612 6134 Pls
6613 6135 Pls
6614 6135 Pls
6615 6134 Pls
6616 6134 Pls
6617 6134 Pls
6618 6134 Pls
6619 6134 Pls
6620 6134 Pls
6621 6134 Pls
6622 6134 Pls
6623 6133 Pls
6624 6133 Pls
6625 6132 Pls
6626 6132 Pls
6626 6132 Pls
6627 6132 Pls
6628 6133 Pls
6629 6133 Pls
6630 6133 Pls
6631 6133 Pls
6632 6133 Pls
6579 6646 Pls
% End plot #1
1.000 UL
LTb
LCb setrgbcolor
686 6779 N
686 448 L
6261 0 V
0 6331 V
-6261 0 V
Z stroke
1.000 UP
1.000 UL
LTb
LCb setrgbcolor
/Helvetica findfont 140 scalefont setfont
1.000 UL
LTb
LCb setrgbcolor
7886 448 M
63 0 V
6198 0 R
-63 0 V
stroke
7802 448 M
[ [(Helvetica) 140.0 0.0 true true 0 ( 0)]
] -46.7 MRshow
1.000 UL
LTb
LCb setrgbcolor
7886 1503 M
63 0 V
6198 0 R
-63 0 V
stroke
7802 1503 M
[ [(Helvetica) 140.0 0.0 true true 0 ( 0.2)]
] -46.7 MRshow
1.000 UL
LTb
LCb setrgbcolor
7886 2558 M
63 0 V
6198 0 R
-63 0 V
stroke
7802 2558 M
[ [(Helvetica) 140.0 0.0 true true 0 ( 0.4)]
] -46.7 MRshow
1.000 UL
LTb
LCb setrgbcolor
7886 3613 M
63 0 V
6198 0 R
-63 0 V
stroke
7802 3613 M
[ [(Helvetica) 140.0 0.0 true true 0 ( 0.6)]
] -46.7 MRshow
1.000 UL
LTb
LCb setrgbcolor
7886 4669 M
63 0 V
6198 0 R
-63 0 V
stroke
7802 4669 M
[ [(Helvetica) 140.0 0.0 true true 0 ( 0.8)]
] -46.7 MRshow
1.000 UL
LTb
LCb setrgbcolor
7886 5724 M
63 0 V
6198 0 R
-63 0 V
stroke
7802 5724 M
[ [(Helvetica) 140.0 0.0 true true 0 ( 1)]
] -46.7 MRshow
1.000 UL
LTb
LCb setrgbcolor
7886 6779 M
63 0 V
6198 0 R
-63 0 V
stroke
7802 6779 M
[ [(Helvetica) 140.0 0.0 true true 0 ( 1.2)]
] -46.7 MRshow
1.000 UL
LTb
LCb setrgbcolor
7886 448 M
0 63 V
0 6268 R
0 -63 V
stroke
7886 308 M
[ [(Helvetica) 140.0 0.0 true true 0 ( 1)]
] -46.7 MCshow
1.000 UL
LTb
LCb setrgbcolor
8200 448 M
0 31 V
0 6300 R
0 -31 V
8615 448 M
0 31 V
0 6300 R
0 -31 V
8828 448 M
0 31 V
0 6300 R
0 -31 V
8930 448 M
0 63 V
0 6268 R
0 -63 V
stroke
8930 308 M
[ [(Helvetica) 140.0 0.0 true true 0 ( 10)]
] -46.7 MCshow
1.000 UL
LTb
LCb setrgbcolor
9244 448 M
0 31 V
0 6300 R
0 -31 V
9659 448 M
0 31 V
0 6300 R
0 -31 V
9872 448 M
0 31 V
0 6300 R
0 -31 V
9973 448 M
0 63 V
0 6268 R
0 -63 V
stroke
9973 308 M
[ [(Helvetica) 140.0 0.0 true true 0 ( 100)]
] -46.7 MCshow
1.000 UL
LTb
LCb setrgbcolor
10287 448 M
0 31 V
0 6300 R
0 -31 V
10702 448 M
0 31 V
0 6300 R
0 -31 V
10915 448 M
0 31 V
0 6300 R
0 -31 V
11017 448 M
0 63 V
0 6268 R
0 -63 V
stroke
11017 308 M
[ [(Helvetica) 140.0 0.0 true true 0 ( 1000)]
] -46.7 MCshow
1.000 UL
LTb
LCb setrgbcolor
11331 448 M
0 31 V
0 6300 R
0 -31 V
11746 448 M
0 31 V
0 6300 R
0 -31 V
11959 448 M
0 31 V
0 6300 R
0 -31 V
12060 448 M
0 63 V
0 6268 R
0 -63 V
stroke
12060 308 M
[ [(Helvetica) 140.0 0.0 true true 0 ( 10000)]
] -46.7 MCshow
1.000 UL
LTb
LCb setrgbcolor
12374 448 M
0 31 V
0 6300 R
0 -31 V
12789 448 M
0 31 V
0 6300 R
0 -31 V
13002 448 M
0 31 V
0 6300 R
0 -31 V
13104 448 M
0 63 V
0 6268 R
0 -63 V
stroke
13104 308 M
[ [(Helvetica) 140.0 0.0 true true 0 ( 100000)]
] -46.7 MCshow
1.000 UL
LTb
LCb setrgbcolor
13418 448 M
0 31 V
0 6300 R
0 -31 V
13833 448 M
0 31 V
0 6300 R
0 -31 V
14046 448 M
0 31 V
0 6300 R
0 -31 V
14147 448 M
0 63 V
0 6268 R
0 -63 V
stroke
14147 308 M
[ [(Helvetica) 140.0 0.0 true true 0 ( 1e+06)]
] -46.7 MCshow
1.000 UL
LTb
LCb setrgbcolor
1.000 UL
LTb
LCb setrgbcolor
7886 6779 N
0 -6331 V
6261 0 V
0 6331 V
-6261 0 V
Z stroke
LCb setrgbcolor
7312 3613 M
currentpoint gsave translate -270 rotate 0 0 moveto
[ [(Helvetica) 140.0 0.0 true true 0 (Pi estimation divided by pi)]
] -46.7 MCshow
grestore
LTb
LCb setrgbcolor
11016 98 M
[ [(Helvetica) 140.0 0.0 true true 0 (Iterations)]
] -46.7 MCshow
LTb
11016 6989 M
[ [(Helvetica) 140.0 0.0 true true 0 (pi estimate normalised by actual pi)]
] -46.7 MCshow
1.000 UP
1.000 UL
LTb
LCb setrgbcolor
% Begin plot #1
1.000 UP
1.000 UL
LT0
LC0 setrgbcolor
/Helvetica findfont 140 scalefont setfont
LCb setrgbcolor
13496 6646 M
("out_div_pi.dat") Rshow
LT0
13580 6646 M
399 0 V
7886 448 M
3131 4963 V
314 7 V
184 127 V
130 33 V
101 30 V
83 12 V
69 1 V
61 26 V
53 14 V
48 11 V
43 -2 V
40 14 V
36 -8 V
34 -15 V
31 -1 V
29 12 V
28 0 V
25 7 V
25 8 V
23 2 V
22 -1 V
21 -2 V
20 -3 V
20 8 V
18 -5 V
18 -1 V
17 11 V
17 -8 V
16 4 V
15 -1 V
15 0 V
14 9 V
14 5 V
14 0 V
13 -1 V
13 0 V
12 3 V
12 2 V
12 0 V
11 5 V
11 -3 V
11 3 V
11 2 V
10 0 V
11 -1 V
10 -5 V
9 -8 V
10 0 V
9 2 V
9 2 V
9 5 V
9 3 V
9 1 V
8 4 V
9 1 V
8 1 V
8 1 V
8 1 V
7 0 V
8 -2 V
7 -1 V
8 0 V
7 -1 V
7 -3 V
7 1 V
7 0 V
7 3 V
7 5 V
6 0 V
7 -2 V
6 5 V
7 2 V
6 -2 V
6 -2 V
6 2 V
6 -2 V
6 3 V
6 2 V
6 0 V
5 -2 V
6 1 V
6 2 V
5 -3 V
5 2 V
6 1 V
5 2 V
5 -1 V
6 -2 V
5 1 V
5 0 V
5 -2 V
5 -1 V
5 -3 V
4 -3 V
5 0 V
5 2 V
5 -2 V
4 -1 V
5 -1 V
5 1 V
4 0 V
4 -4 V
stroke 13112 5718 M
5 -2 V
4 2 V
5 2 V
4 0 V
4 0 V
4 2 V
5 1 V
4 -1 V
4 2 V
4 -3 V
4 0 V
4 2 V
4 -1 V
4 -3 V
4 -2 V
4 -2 V
3 1 V
4 -2 V
4 2 V
4 1 V
3 2 V
4 -1 V
4 -1 V
3 2 V
4 2 V
3 2 V
4 -1 V
3 0 V
4 -1 V
3 0 V
4 4 V
3 0 V
4 -3 V
3 0 V
3 0 V
3 -2 V
4 -1 V
3 0 V
3 1 V
3 0 V
4 1 V
3 -3 V
3 0 V
3 2 V
3 -1 V
3 2 V
3 -1 V
3 3 V
3 -1 V
3 -1 V
3 -2 V
3 0 V
3 2 V
3 -1 V
3 1 V
3 -1 V
3 0 V
3 1 V
2 0 V
3 0 V
3 0 V
3 0 V
2 2 V
3 -1 V
3 0 V
3 -2 V
2 1 V
3 -1 V
3 0 V
2 1 V
3 0 V
3 0 V
2 0 V
3 0 V
2 0 V
3 1 V
2 0 V
3 2 V
2 0 V
3 0 V
2 -1 V
3 -1 V
2 0 V
3 0 V
2 0 V
3 0 V
2 0 V
2 2 V
3 0 V
2 0 V
2 0 V
3 0 V
2 1 V
2 0 V
3 0 V
2 0 V
2 -1 V
3 1 V
2 0 V
2 0 V
2 0 V
3 -1 V
2 0 V
2 0 V
stroke 13431 5724 M
2 1 V
2 -2 V
3 -1 V
2 0 V
2 -1 V
2 0 V
2 1 V
2 0 V
2 0 V
3 0 V
2 1 V
2 -1 V
2 -1 V
2 0 V
2 0 V
2 0 V
2 1 V
2 0 V
2 1 V
2 0 V
2 0 V
2 -2 V
2 0 V
2 1 V
2 0 V
2 0 V
2 0 V
2 1 V
2 1 V
2 0 V
2 0 V
1 1 V
2 0 V
2 -1 V
2 -1 V
2 1 V
2 -1 V
2 0 V
2 0 V
1 0 V
2 0 V
2 -1 V
2 0 V
2 0 V
2 0 V
1 0 V
2 0 V
2 -1 V
2 0 V
2 1 V
1 1 V
2 -1 V
2 1 V
2 0 V
1 0 V
2 -1 V
2 0 V
1 0 V
2 1 V
2 2 V
2 -1 V
1 0 V
2 0 V
2 0 V
1 0 V
2 0 V
2 1 V
1 0 V
2 1 V
2 -1 V
1 -1 V
2 0 V
1 1 V
2 0 V
2 -1 V
1 0 V
2 2 V
2 -1 V
1 -1 V
2 -1 V
1 0 V
2 0 V
1 0 V
2 -1 V
2 0 V
1 0 V
2 0 V
1 0 V
2 1 V
1 0 V
2 0 V
1 -1 V
2 1 V
1 -1 V
2 0 V
1 1 V
2 -1 V
1 1 V
2 0 V
1 -1 V
2 0 V
1 0 V
2 0 V
1 0 V
stroke 13616 5722 M
2 0 V
1 -1 V
2 0 V
1 -1 V
1 0 V
2 0 V
1 0 V
2 0 V
1 0 V
2 0 V
1 0 V
1 0 V
2 0 V
1 1 V
2 1 V
1 0 V
1 0 V
2 0 V
1 1 V
2 0 V
1 0 V
1 0 V
2 0 V
1 0 V
1 -1 V
2 0 V
1 1 V
1 0 V
2 0 V
1 0 V
1 1 V
2 -1 V
1 0 V
1 0 V
2 0 V
1 1 V
1 -1 V
2 1 V
1 0 V
1 0 V
2 0 V
1 0 V
1 -1 V
1 0 V
2 0 V
1 0 V
1 0 V
1 0 V
2 1 V
1 0 V
1 1 V
2 0 V
1 0 V
1 -1 V
1 0 V
1 0 V
2 0 V
1 1 V
1 -1 V
1 0 V
2 0 V
1 1 V
1 0 V
1 0 V
2 0 V
1 0 V
1 0 V
1 0 V
1 1 V
2 0 V
1 0 V
1 0 V
1 0 V
1 1 V
1 -1 V
2 1 V
1 0 V
1 0 V
1 0 V
1 -1 V
1 1 V
2 1 V
1 0 V
1 -1 V
1 1 V
1 -1 V
1 1 V
1 0 V
2 -1 V
1 1 V
1 1 V
1 0 V
1 0 V
1 1 V
1 -1 V
1 0 V
2 0 V
1 1 V
1 0 V
1 -1 V
1 0 V
1 0 V
1 -1 V
1 1 V
stroke 13747 5729 M
1 0 V
2 -1 V
1 1 V
1 0 V
1 0 V
1 0 V
1 0 V
1 0 V
1 1 V
1 0 V
1 1 V
1 0 V
1 -1 V
1 0 V
1 -1 V
2 0 V
1 -1 V
1 0 V
1 0 V
1 0 V
1 -1 V
1 1 V
1 0 V
1 -1 V
1 1 V
1 0 V
1 0 V
1 0 V
1 0 V
1 1 V
1 -1 V
1 0 V
1 1 V
1 0 V
1 0 V
1 0 V
1 0 V
1 0 V
1 0 V
1 0 V
1 0 V
1 0 V
1 0 V
1 0 V
1 0 V
1 0 V
1 0 V
1 0 V
1 -1 V
1 1 V
1 -1 V
1 -1 V
1 1 V
1 0 V
1 0 V
1 0 V
1 0 V
1 0 V
1 0 V
1 0 V
1 0 V
1 0 V
1 -1 V
1 0 V
1 0 V
1 0 V
1 0 V
1 0 V
1 0 V
1 0 V
1 0 V
1 0 V
1 0 V
1 -1 V
1 0 V
1 -1 V
1 0 V
1 0 V
1 1 V
1 0 V
1 0 V
1 0 V
1 0 V
7886 448 Pls
11017 5411 Pls
11331 5418 Pls
11515 5545 Pls
11645 5578 Pls
11746 5608 Pls
11829 5620 Pls
11898 5621 Pls
11959 5647 Pls
12012 5661 Pls
12060 5672 Pls
12103 5670 Pls
12143 5684 Pls
12179 5676 Pls
12213 5661 Pls
12244 5660 Pls
12273 5672 Pls
12301 5672 Pls
12326 5679 Pls
12351 5687 Pls
12374 5689 Pls
12396 5688 Pls
12417 5686 Pls
12437 5683 Pls
12457 5691 Pls
12475 5686 Pls
12493 5685 Pls
12510 5696 Pls
12527 5688 Pls
12543 5692 Pls
12558 5691 Pls
12573 5691 Pls
12587 5700 Pls
12601 5705 Pls
12615 5705 Pls
12628 5704 Pls
12641 5704 Pls
12653 5707 Pls
12665 5709 Pls
12677 5709 Pls
12688 5714 Pls
12699 5711 Pls
12710 5714 Pls
12721 5716 Pls
12731 5716 Pls
12742 5715 Pls
12752 5710 Pls
12761 5702 Pls
12771 5702 Pls
12780 5704 Pls
12789 5706 Pls
12798 5711 Pls
12807 5714 Pls
12816 5715 Pls
12824 5719 Pls
12833 5720 Pls
12841 5721 Pls
12849 5722 Pls
12857 5723 Pls
12864 5723 Pls
12872 5721 Pls
12879 5720 Pls
12887 5720 Pls
12894 5719 Pls
12901 5716 Pls
12908 5717 Pls
12915 5717 Pls
12922 5720 Pls
12929 5725 Pls
12935 5725 Pls
12942 5723 Pls
12948 5728 Pls
12955 5730 Pls
12961 5728 Pls
12967 5726 Pls
12973 5728 Pls
12979 5726 Pls
12985 5729 Pls
12991 5731 Pls
12997 5731 Pls
13002 5729 Pls
13008 5730 Pls
13014 5732 Pls
13019 5729 Pls
13024 5731 Pls
13030 5732 Pls
13035 5734 Pls
13040 5733 Pls
13046 5731 Pls
13051 5732 Pls
13056 5732 Pls
13061 5730 Pls
13066 5729 Pls
13071 5726 Pls
13075 5723 Pls
13080 5723 Pls
13085 5725 Pls
13090 5723 Pls
13094 5722 Pls
13099 5721 Pls
13104 5722 Pls
13108 5722 Pls
13112 5718 Pls
13117 5716 Pls
13121 5718 Pls
13126 5720 Pls
13130 5720 Pls
13134 5720 Pls
13138 5722 Pls
13143 5723 Pls
13147 5722 Pls
13151 5724 Pls
13155 5721 Pls
13159 5721 Pls
13163 5723 Pls
13167 5722 Pls
13171 5719 Pls
13175 5717 Pls
13179 5715 Pls
13182 5716 Pls
13186 5714 Pls
13190 5716 Pls
13194 5717 Pls
13197 5719 Pls
13201 5718 Pls
13205 5717 Pls
13208 5719 Pls
13212 5721 Pls
13215 5723 Pls
13219 5722 Pls
13222 5722 Pls
13226 5721 Pls
13229 5721 Pls
13233 5725 Pls
13236 5725 Pls
13240 5722 Pls
13243 5722 Pls
13246 5722 Pls
13249 5720 Pls
13253 5719 Pls
13256 5719 Pls
13259 5720 Pls
13262 5720 Pls
13266 5721 Pls
13269 5718 Pls
13272 5718 Pls
13275 5720 Pls
13278 5719 Pls
13281 5721 Pls
13284 5720 Pls
13287 5723 Pls
13290 5722 Pls
13293 5721 Pls
13296 5719 Pls
13299 5719 Pls
13302 5721 Pls
13305 5720 Pls
13308 5721 Pls
13311 5720 Pls
13314 5720 Pls
13317 5721 Pls
13319 5721 Pls
13322 5721 Pls
13325 5721 Pls
13328 5721 Pls
13330 5723 Pls
13333 5722 Pls
13336 5722 Pls
13339 5720 Pls
13341 5721 Pls
13344 5720 Pls
13347 5720 Pls
13349 5721 Pls
13352 5721 Pls
13355 5721 Pls
13357 5721 Pls
13360 5721 Pls
13362 5721 Pls
13365 5722 Pls
13367 5722 Pls
13370 5724 Pls
13372 5724 Pls
13375 5724 Pls
13377 5723 Pls
13380 5722 Pls
13382 5722 Pls
13385 5722 Pls
13387 5722 Pls
13390 5722 Pls
13392 5722 Pls
13394 5724 Pls
13397 5724 Pls
13399 5724 Pls
13401 5724 Pls
13404 5724 Pls
13406 5725 Pls
13408 5725 Pls
13411 5725 Pls
13413 5725 Pls
13415 5724 Pls
13418 5725 Pls
13420 5725 Pls
13422 5725 Pls
13424 5725 Pls
13427 5724 Pls
13429 5724 Pls
13431 5724 Pls
13433 5725 Pls
13435 5723 Pls
13438 5722 Pls
13440 5722 Pls
13442 5721 Pls
13444 5721 Pls
13446 5722 Pls
13448 5722 Pls
13450 5722 Pls
13453 5722 Pls
13455 5723 Pls
13457 5722 Pls
13459 5721 Pls
13461 5721 Pls
13463 5721 Pls
13465 5721 Pls
13467 5722 Pls
13469 5722 Pls
13471 5723 Pls
13473 5723 Pls
13475 5723 Pls
13477 5721 Pls
13479 5721 Pls
13481 5722 Pls
13483 5722 Pls
13485 5722 Pls
13487 5722 Pls
13489 5723 Pls
13491 5724 Pls
13493 5724 Pls
13495 5724 Pls
13496 5725 Pls
13498 5725 Pls
13500 5724 Pls
13502 5723 Pls
13504 5724 Pls
13506 5723 Pls
13508 5723 Pls
13510 5723 Pls
13511 5723 Pls
13513 5723 Pls
13515 5722 Pls
13517 5722 Pls
13519 5722 Pls
13521 5722 Pls
13522 5722 Pls
13524 5722 Pls
13526 5721 Pls
13528 5721 Pls
13530 5722 Pls
13531 5723 Pls
13533 5722 Pls
13535 5723 Pls
13537 5723 Pls
13538 5723 Pls
13540 5722 Pls
13542 5722 Pls
13543 5722 Pls
13545 5723 Pls
13547 5725 Pls
13549 5724 Pls
13550 5724 Pls
13552 5724 Pls
13554 5724 Pls
13555 5724 Pls
13557 5724 Pls
13559 5725 Pls
13560 5725 Pls
13562 5726 Pls
13564 5725 Pls
13565 5724 Pls
13567 5724 Pls
13568 5725 Pls
13570 5725 Pls
13572 5724 Pls
13573 5724 Pls
13575 5726 Pls
13577 5725 Pls
13578 5724 Pls
13580 5723 Pls
13581 5723 Pls
13583 5723 Pls
13584 5723 Pls
13586 5722 Pls
13588 5722 Pls
13589 5722 Pls
13591 5722 Pls
13592 5722 Pls
13594 5723 Pls
13595 5723 Pls
13597 5723 Pls
13598 5722 Pls
13600 5723 Pls
13601 5722 Pls
13603 5722 Pls
13604 5723 Pls
13606 5722 Pls
13607 5723 Pls
13609 5723 Pls
13610 5722 Pls
13612 5722 Pls
13613 5722 Pls
13615 5722 Pls
13616 5722 Pls
13618 5722 Pls
13619 5721 Pls
13621 5721 Pls
13622 5720 Pls
13623 5720 Pls
13625 5720 Pls
13626 5720 Pls
13628 5720 Pls
13629 5720 Pls
13631 5720 Pls
13632 5720 Pls
13633 5720 Pls
13635 5720 Pls
13636 5721 Pls
13638 5722 Pls
13639 5722 Pls
13640 5722 Pls
13642 5722 Pls
13643 5723 Pls
13645 5723 Pls
13646 5723 Pls
13647 5723 Pls
13649 5723 Pls
13650 5723 Pls
13651 5722 Pls
13653 5722 Pls
13654 5723 Pls
13655 5723 Pls
13657 5723 Pls
13658 5723 Pls
13659 5724 Pls
13661 5723 Pls
13662 5723 Pls
13663 5723 Pls
13665 5723 Pls
13666 5724 Pls
13667 5723 Pls
13669 5724 Pls
13670 5724 Pls
13671 5724 Pls
13673 5724 Pls
13674 5724 Pls
13675 5723 Pls
13676 5723 Pls
13678 5723 Pls
13679 5723 Pls
13680 5723 Pls
13681 5723 Pls
13683 5724 Pls
13684 5724 Pls
13685 5725 Pls
13687 5725 Pls
13688 5725 Pls
13689 5724 Pls
13690 5724 Pls
13691 5724 Pls
13693 5724 Pls
13694 5725 Pls
13695 5724 Pls
13696 5724 Pls
13698 5724 Pls
13699 5725 Pls
13700 5725 Pls
13701 5725 Pls
13703 5725 Pls
13704 5725 Pls
13705 5725 Pls
13706 5725 Pls
13707 5726 Pls
13709 5726 Pls
13710 5726 Pls
13711 5726 Pls
13712 5726 Pls
13713 5727 Pls
13714 5726 Pls
13716 5727 Pls
13717 5727 Pls
13718 5727 Pls
13719 5727 Pls
13720 5726 Pls
13721 5727 Pls
13723 5728 Pls
13724 5728 Pls
13725 5727 Pls
13726 5728 Pls
13727 5727 Pls
13728 5728 Pls
13729 5728 Pls
13731 5727 Pls
13732 5728 Pls
13733 5729 Pls
13734 5729 Pls
13735 5729 Pls
13736 5730 Pls
13737 5729 Pls
13738 5729 Pls
13740 5729 Pls
13741 5730 Pls
13742 5730 Pls
13743 5729 Pls
13744 5729 Pls
13745 5729 Pls
13746 5728 Pls
13747 5729 Pls
13748 5729 Pls
13750 5728 Pls
13751 5729 Pls
13752 5729 Pls
13753 5729 Pls
13754 5729 Pls
13755 5729 Pls
13756 5729 Pls
13757 5730 Pls
13758 5730 Pls
13759 5731 Pls
13760 5731 Pls
13761 5730 Pls
13762 5730 Pls
13763 5729 Pls
13765 5729 Pls
13766 5728 Pls
13767 5728 Pls
13768 5728 Pls
13769 5728 Pls
13770 5727 Pls
13771 5728 Pls
13772 5728 Pls
13773 5727 Pls
13774 5728 Pls
13775 5728 Pls
13776 5728 Pls
13777 5728 Pls
13778 5728 Pls
13779 5729 Pls
13780 5728 Pls
13781 5728 Pls
13782 5729 Pls
13783 5729 Pls
13784 5729 Pls
13785 5729 Pls
13786 5729 Pls
13787 5729 Pls
13788 5729 Pls
13789 5729 Pls
13790 5729 Pls
13791 5729 Pls
13792 5729 Pls
13793 5729 Pls
13794 5729 Pls
13795 5729 Pls
13796 5729 Pls
13797 5729 Pls
13798 5728 Pls
13799 5729 Pls
13800 5728 Pls
13801 5727 Pls
13802 5728 Pls
13803 5728 Pls
13804 5728 Pls
13805 5728 Pls
13806 5728 Pls
13807 5728 Pls
13808 5728 Pls
13809 5728 Pls
13810 5728 Pls
13811 5728 Pls
13812 5727 Pls
13812 5727 Pls
13813 5727 Pls
13814 5727 Pls
13815 5727 Pls
13816 5727 Pls
13817 5727 Pls
13818 5727 Pls
13819 5727 Pls
13820 5727 Pls
13821 5727 Pls
13822 5727 Pls
13823 5726 Pls
13824 5726 Pls
13825 5725 Pls
13826 5725 Pls
13826 5725 Pls
13827 5725 Pls
13828 5726 Pls
13829 5726 Pls
13830 5726 Pls
13831 5726 Pls
13832 5726 Pls
13779 6646 Pls
% End plot #1
1.000 UL
LTb
LCb setrgbcolor
7886 6779 N
0 -6331 V
6261 0 V
0 6331 V
-6261 0 V
Z stroke
1.000 UP
1.000 UL
LTb
LCb setrgbcolor
stroke
grestore
end
showpage
%%Trailer
%%DocumentFonts: Helvetica
